#!/bin/bash
echo secures ON LINUX
echo ===== 2024/01 ...

USER=`whoami`
if [ "$USER" == "root" ]; then
    echo X...  USE AS USER...
    echo X... else you will mess up at some moment
    exit 1
fi



#    vvvv vvvv-- the code from above
RED='\033[0;31m'
GRE='\033[0;32m'
NC='\033[0m' # No Color
#######echo -e "I ${RED}love${NC} Stack Overflow"

CORES=`cat /proc/cpuinfo | grep "cpu cores" | sort | uniq | cut -d':' -f2`

function q_on_error(){
    if [ "$1" = "0" ]; then
	echo ...ok...
    else
	echo !... ERROR WAS DETECTED ... I QUIT
	echo !... ERROR WAS DETECTED ... I QUIT
	echo !... ERROR WAS DETECTED ... I QUIT
	exit 1
    fi
}

onexit(){
    #echo "_____________________________________looking on ufw status:"
    #sudo ufw status verbose
    echo "_____________________________________command on exit finished"
}

declare asnuser
declare ansgroup


function inputusergroup(){
    echo input user:
    read -p "user:" ansuser
    echo input group:
    read -p "group:" ansgroup
    echo  ... ${ansuser}:${ansgroup}
}

declade ansinput

function inputme(){
    echo input $1:
    read -p ">" ansinput
}

function enter(){
    echo $1
    read -p "say ENTER..." ans
}

function yes_or_no {
    while true; do
        read -p "$* [y/n]: " yn
        case $yn in
            [Yy]*) return 0  ;;
            [Nn]*) echo "Aborted" ; return  1 ;;
        esac
    done
}


# READ SIZE OF TERM
read -r rows cols < <(stty size)
((cols=cols-2))


echo -e $GRE
echo -e _________________________________
date
echo -e _________________________________
echo -e $NC

# ================================================================
# ================================================================
# ================================================================
# ================================================================
# ================================================================

tag=(getco 'wget config to ~/DATA/'
     gdocker 'install docker ubuntu 22'
     hello 'helo-wrld in docker'
     pull 'docker pull zigbee'
     show 'show commandline'
     quit 'bye bye')

RADIOLIST=()
for ((i=0; i<${#tag[@]}; i+=2))
do
    #echo $i ${tag[$i]}
    ((j=i+1))
    RADIOLIST+=( "${tag[$i]}" "${tag[$j]}" "OFF")
done

let ARLENGTH=${#tag[@]}

((ARLENGTH=ARLENGTH/2+1))
((rows=ARLENGTH+5))

# ================================================================
# ================================================================
# ================================================================
# ================================================================
# ================================================================

while [ 1 ]; do



    CHOICES=$(whiptail --separate-output --checklist "Choose options" $rows $cols $ARLENGTH \
		       --cancel-button "EXIT" "${RADIOLIST[@]}"  3>&1 1>&2 2>&3)




if [ -z "$CHOICES" ]; then
    echo "X... No option was selected (user hit Cancel or unselected all options)"
    echo .
    onexit
    #sleep 1
    exit 2
else
  for CHOICE in $CHOICES; do
      case "$CHOICE" in

    "aaa")
	echo "$CHOICE"
      ;;

    "getco")
	echo "$CHOICE"
	mkdir $HOME/DATA
	wget https://raw.githubusercontent.com/Koenkk/zigbee2mqtt/master/data/configuration.example.yaml -O $HOME/DATA/configuration.yaml
      ;;


    "gdocker")
	echo "$CHOICE"
	sudo apt update
	sudo apt install apt-transport-https ca-certificates curl software-properties-common
	curl -fsSL https://download.docker.com/linux/ubuntu/gpg | sudo gpg --dearmor -o /usr/share/keyrings/docker-archive-keyring.gpg

	echo "deb [arch=$(dpkg --print-architecture) signed-by=/usr/share/keyrings/docker-archive-keyring.gpg] https://download.docker.com/linux/ubuntu $(lsb_release -cs) stable" | sudo tee /etc/apt/sources.list.d/docker.list > /dev/null
	sudo apt update
	apt-cache policy docker-ce
	sudo apt install docker-ce
	sudo systemctl status docker

      ;;


    "hello")
	echo "$CHOICE"
	sudo docker run hello-world
	enter
	;;


    "pull")
	echo "$CHOICE"
	sudo docker pull koenkk/zigbee2mqtt;
	;;

    "show")
	echo "$CHOICE"

	echo 'sudo docker run --name zigbee2mqtt    --restart=unless-stopped --net=host   --device=/dev/serial/by-id/usb-Nabu_Casa_SkyConnect_v1.0_ea3081ab25b7ed118a59955938a92db5-if00-port0:/dev/ttyACM0 -p 8080:8080 -v /home/ubuntu/DATA:/app/data    -v /run/udev:/run/udev:ro  -e TZ=Europe/Prague  koenkk/zigbee2mqtt'
	enter
      ;;



    "aaa")
	echo "$CHOICE"
      ;;


    "quit")
	echo "_______________________________________________________________"
	echo "$CHOICE"
	exit 0
	echo ================== DONE
	;;

    *)
	echo "_______________________________________________________________"
	echo "Unsupported item $CHOICE!  Some ERRORRRRRRR" >&2
      exit 1
      ;;
    esac
  done
# if else -z CHOICES
fi

#echo ... few seconds and I return to the menu ...
#sleep 3
# while [ 1 ]
done







exit 0
